﻿1853bc29-7b11-4fa4-b36c-edc79c448b6d-->und\1853bc29-7b11-4fa4-b36c-edc79c448b6d
49040143-064f-44cb-9a9d-50786d727258-->und\49040143-064f-44cb-9a9d-50786d727258
49040143-064f-44cb-9a9d-50786d727258.0-->und\49040143-064f-44cb-9a9d-50786d727258.0
copyinfo-->und\copyinfo
root-->und\root
version-->und\version
versions-->und\versions
